^C:\USERS\70991\ONEDRIVE\DESKTOP\YEAR3\PROJECT_DEMO\CELTICKNOTSOFTWARE\CELTICKNOTSOFTWARE\CELTICKNOTSOFTWARE.CPP
E:\INSTALL\VS\VC\TOOLS\MSVC\14.16.27023\BIN\HOSTX86\X86\2052\CLUI.DLL
C:\WINDOWS\GLOBALIZATION\SORTING\SORTDEFAULT.NLS
C:\WINDOWS\SYSTEM32\TZRES.DLL
E:\INSTALL\VS\VC\TOOLS\MSVC\14.16.27023\INCLUDE\GL\GLUT.H
E:\INSTALL\VS\VC\TOOLS\MSVC\14.16.27023\INCLUDE\GL\GL.H
E:\INSTALL\VS\VC\TOOLS\MSVC\14.16.27023\INCLUDE\GL\GLU.H
E:\INSTALL\VS\VC\TOOLS\MSVC\14.16.27023\INCLUDE\IOSTREAM
E:\INSTALL\VS\VC\TOOLS\MSVC\14.16.27023\INCLUDE\ISTREAM
E:\INSTALL\VS\VC\TOOLS\MSVC\14.16.27023\INCLUDE\OSTREAM
E:\INSTALL\VS\VC\TOOLS\MSVC\14.16.27023\INCLUDE\IOS
E:\INSTALL\VS\VC\TOOLS\MSVC\14.16.27023\INCLUDE\XLOCNUM
E:\INSTALL\VS\VC\TOOLS\MSVC\14.16.27023\INCLUDE\CLIMITS
E:\INSTALL\VS\VC\TOOLS\MSVC\14.16.27023\INCLUDE\YVALS.H
E:\INSTALL\VS\VC\TOOLS\MSVC\14.16.27023\INCLUDE\YVALS_CORE.H
E:\INSTALL\VS\VC\TOOLS\MSVC\14.16.27023\INCLUDE\XKEYCHECK.H
E:\INSTALL\VS\VC\TOOLS\MSVC\14.16.27023\INCLUDE\CRTDEFS.H
E:\INSTALL\VS\VC\TOOLS\MSVC\14.16.27023\INCLUDE\VCRUNTIME.H
E:\INSTALL\VS\VC\TOOLS\MSVC\14.16.27023\INCLUDE\SAL.H
E:\INSTALL\VS\VC\TOOLS\MSVC\14.16.27023\INCLUDE\CONCURRENCYSAL.H
E:\INSTALL\VS\VC\TOOLS\MSVC\14.16.27023\INCLUDE\VADEFS.H
E:\WINDOWS KITS\10\INCLUDE\10.0.17763.0\UCRT\CORECRT.H
E:\WINDOWS KITS\10\INCLUDE\10.0.17763.0\UCRT\CRTDBG.H
E:\INSTALL\VS\VC\TOOLS\MSVC\14.16.27023\INCLUDE\VCRUNTIME_NEW_DEBUG.H
E:\INSTALL\VS\VC\TOOLS\MSVC\14.16.27023\INCLUDE\VCRUNTIME_NEW.H
E:\INSTALL\VS\VC\TOOLS\MSVC\14.16.27023\INCLUDE\USE_ANSI.H
E:\INSTALL\VS\VC\TOOLS\MSVC\14.16.27023\INCLUDE\LIMITS.H
E:\INSTALL\VS\VC\TOOLS\MSVC\14.16.27023\INCLUDE\CMATH
E:\INSTALL\VS\VC\TOOLS\MSVC\14.16.27023\INCLUDE\CSTDLIB
E:\WINDOWS KITS\10\INCLUDE\10.0.17763.0\UCRT\STDLIB.H
E:\WINDOWS KITS\10\INCLUDE\10.0.17763.0\UCRT\CORECRT_MALLOC.H
E:\WINDOWS KITS\10\INCLUDE\10.0.17763.0\UCRT\CORECRT_SEARCH.H
E:\WINDOWS KITS\10\INCLUDE\10.0.17763.0\UCRT\STDDEF.H
E:\WINDOWS KITS\10\INCLUDE\10.0.17763.0\UCRT\CORECRT_WSTDLIB.H
E:\WINDOWS KITS\10\INCLUDE\10.0.17763.0\UCRT\MATH.H
E:\WINDOWS KITS\10\INCLUDE\10.0.17763.0\UCRT\CORECRT_MATH.H
E:\INSTALL\VS\VC\TOOLS\MSVC\14.16.27023\INCLUDE\XTGMATH.H
E:\INSTALL\VS\VC\TOOLS\MSVC\14.16.27023\INCLUDE\XTR1COMMON
E:\INSTALL\VS\VC\TOOLS\MSVC\14.16.27023\INCLUDE\CSTDIO
E:\WINDOWS KITS\10\INCLUDE\10.0.17763.0\UCRT\STDIO.H
E:\WINDOWS KITS\10\INCLUDE\10.0.17763.0\UCRT\CORECRT_WSTDIO.H
E:\WINDOWS KITS\10\INCLUDE\10.0.17763.0\UCRT\CORECRT_STDIO_CONFIG.H
E:\INSTALL\VS\VC\TOOLS\MSVC\14.16.27023\INCLUDE\STREAMBUF
E:\INSTALL\VS\VC\TOOLS\MSVC\14.16.27023\INCLUDE\XIOSBASE
E:\INSTALL\VS\VC\TOOLS\MSVC\14.16.27023\INCLUDE\XLOCALE
E:\INSTALL\VS\VC\TOOLS\MSVC\14.16.27023\INCLUDE\CSTRING
E:\WINDOWS KITS\10\INCLUDE\10.0.17763.0\UCRT\STRING.H
E:\WINDOWS KITS\10\INCLUDE\10.0.17763.0\UCRT\CORECRT_MEMORY.H
E:\WINDOWS KITS\10\INCLUDE\10.0.17763.0\UCRT\CORECRT_MEMCPY_S.H
E:\WINDOWS KITS\10\INCLUDE\10.0.17763.0\UCRT\ERRNO.H
E:\INSTALL\VS\VC\TOOLS\MSVC\14.16.27023\INCLUDE\VCRUNTIME_STRING.H
E:\WINDOWS KITS\10\INCLUDE\10.0.17763.0\UCRT\CORECRT_WSTRING.H
E:\INSTALL\VS\VC\TOOLS\MSVC\14.16.27023\INCLUDE\STDEXCEPT
E:\INSTALL\VS\VC\TOOLS\MSVC\14.16.27023\INCLUDE\EXCEPTION
E:\INSTALL\VS\VC\TOOLS\MSVC\14.16.27023\INCLUDE\TYPE_TRAITS
E:\INSTALL\VS\VC\TOOLS\MSVC\14.16.27023\INCLUDE\XSTDDEF
E:\INSTALL\VS\VC\TOOLS\MSVC\14.16.27023\INCLUDE\CSTDDEF
E:\INSTALL\VS\VC\TOOLS\MSVC\14.16.27023\INCLUDE\INITIALIZER_LIST
E:\WINDOWS KITS\10\INCLUDE\10.0.17763.0\UCRT\MALLOC.H
E:\INSTALL\VS\VC\TOOLS\MSVC\14.16.27023\INCLUDE\VCRUNTIME_EXCEPTION.H
E:\INSTALL\VS\VC\TOOLS\MSVC\14.16.27023\INCLUDE\EH.H
E:\WINDOWS KITS\10\INCLUDE\10.0.17763.0\UCRT\CORECRT_TERMINATE.H
E:\INSTALL\VS\VC\TOOLS\MSVC\14.16.27023\INCLUDE\XSTRING
E:\INSTALL\VS\VC\TOOLS\MSVC\14.16.27023\INCLUDE\XMEMORY0
E:\INSTALL\VS\VC\TOOLS\MSVC\14.16.27023\INCLUDE\CSTDINT
E:\INSTALL\VS\VC\TOOLS\MSVC\14.16.27023\INCLUDE\STDINT.H
E:\INSTALL\VS\VC\TOOLS\MSVC\14.16.27023\INCLUDE\LIMITS
E:\INSTALL\VS\VC\TOOLS\MSVC\14.16.27023\INCLUDE\YMATH.H
E:\INSTALL\VS\VC\TOOLS\MSVC\14.16.27023\INCLUDE\CFLOAT
E:\WINDOWS KITS\10\INCLUDE\10.0.17763.0\UCRT\FLOAT.H
E:\INSTALL\VS\VC\TOOLS\MSVC\14.16.27023\INCLUDE\CWCHAR
E:\WINDOWS KITS\10\INCLUDE\10.0.17763.0\UCRT\WCHAR.H
E:\WINDOWS KITS\10\INCLUDE\10.0.17763.0\UCRT\CORECRT_WCONIO.H
E:\WINDOWS KITS\10\INCLUDE\10.0.17763.0\UCRT\CORECRT_WCTYPE.H
E:\WINDOWS KITS\10\INCLUDE\10.0.17763.0\UCRT\CORECRT_WDIRECT.H
E:\WINDOWS KITS\10\INCLUDE\10.0.17763.0\UCRT\CORECRT_WIO.H
E:\WINDOWS KITS\10\INCLUDE\10.0.17763.0\UCRT\CORECRT_SHARE.H
E:\WINDOWS KITS\10\INCLUDE\10.0.17763.0\UCRT\CORECRT_WPROCESS.H
E:\WINDOWS KITS\10\INCLUDE\10.0.17763.0\UCRT\CORECRT_WTIME.H
E:\WINDOWS KITS\10\INCLUDE\10.0.17763.0\UCRT\SYS\STAT.H
E:\WINDOWS KITS\10\INCLUDE\10.0.17763.0\UCRT\SYS\TYPES.H
E:\INSTALL\VS\VC\TOOLS\MSVC\14.16.27023\INCLUDE\NEW
E:\INSTALL\VS\VC\TOOLS\MSVC\14.16.27023\INCLUDE\XUTILITY
E:\INSTALL\VS\VC\TOOLS\MSVC\14.16.27023\INCLUDE\UTILITY
E:\INSTALL\VS\VC\TOOLS\MSVC\14.16.27023\INCLUDE\IOSFWD
E:\INSTALL\VS\VC\TOOLS\MSVC\14.16.27023\INCLUDE\XATOMIC0.H
E:\INSTALL\VS\VC\TOOLS\MSVC\14.16.27023\INCLUDE\INTRIN0.H
E:\INSTALL\VS\VC\TOOLS\MSVC\14.16.27023\INCLUDE\TYPEINFO
E:\INSTALL\VS\VC\TOOLS\MSVC\14.16.27023\INCLUDE\VCRUNTIME_TYPEINFO.H
E:\INSTALL\VS\VC\TOOLS\MSVC\14.16.27023\INCLUDE\XLOCINFO
E:\INSTALL\VS\VC\TOOLS\MSVC\14.16.27023\INCLUDE\XLOCINFO.H
E:\WINDOWS KITS\10\INCLUDE\10.0.17763.0\UCRT\CTYPE.H
E:\WINDOWS KITS\10\INCLUDE\10.0.17763.0\UCRT\LOCALE.H
E:\INSTALL\VS\VC\TOOLS\MSVC\14.16.27023\INCLUDE\MEMORY
E:\INSTALL\VS\VC\TOOLS\MSVC\14.16.27023\INCLUDE\XMEMORY
E:\INSTALL\VS\VC\TOOLS\MSVC\14.16.27023\INCLUDE\XFACET
E:\INSTALL\VS\VC\TOOLS\MSVC\14.16.27023\INCLUDE\SYSTEM_ERROR
E:\INSTALL\VS\VC\TOOLS\MSVC\14.16.27023\INCLUDE\CERRNO
E:\INSTALL\VS\VC\TOOLS\MSVC\14.16.27023\INCLUDE\XCALL_ONCE.H
E:\INSTALL\VS\VC\TOOLS\MSVC\14.16.27023\INCLUDE\XERRC.H
E:\WINDOWS KITS\10\INCLUDE\10.0.17763.0\UCRT\SHARE.H
E:\INSTALL\VS\VC\TOOLS\MSVC\14.16.27023\INCLUDE\VECTOR
E:\WINDOWS KITS\10\INCLUDE\10.0.17763.0\UM\WINDOWS.H
E:\WINDOWS KITS\10\INCLUDE\10.0.17763.0\SHARED\WINAPIFAMILY.H
E:\WINDOWS KITS\10\INCLUDE\10.0.17763.0\SHARED\WINPACKAGEFAMILY.H
E:\WINDOWS KITS\10\INCLUDE\10.0.17763.0\SHARED\SDKDDKVER.H
E:\INSTALL\VS\VC\TOOLS\MSVC\14.16.27023\INCLUDE\EXCPT.H
E:\INSTALL\VS\VC\TOOLS\MSVC\14.16.27023\INCLUDE\STDARG.H
E:\WINDOWS KITS\10\INCLUDE\10.0.17763.0\SHARED\WINDEF.H
E:\WINDOWS KITS\10\INCLUDE\10.0.17763.0\SHARED\MINWINDEF.H
E:\WINDOWS KITS\10\INCLUDE\10.0.17763.0\SHARED\SPECSTRINGS.H
E:\WINDOWS KITS\10\INCLUDE\10.0.17763.0\SHARED\SPECSTRINGS_STRICT.H
E:\WINDOWS KITS\10\INCLUDE\10.0.17763.0\SHARED\SPECSTRINGS_UNDEF.H
E:\WINDOWS KITS\10\INCLUDE\10.0.17763.0\SHARED\DRIVERSPECS.H
E:\WINDOWS KITS\10\INCLUDE\10.0.17763.0\SHARED\SDV_DRIVERSPECS.H
E:\WINDOWS KITS\10\INCLUDE\10.0.17763.0\UM\WINNT.H
E:\WINDOWS KITS\10\INCLUDE\10.0.17763.0\SHARED\KERNELSPECS.H
E:\WINDOWS KITS\10\INCLUDE\10.0.17763.0\SHARED\BASETSD.H
E:\WINDOWS KITS\10\INCLUDE\10.0.17763.0\SHARED\GUIDDEF.H
E:\WINDOWS KITS\10\INCLUDE\10.0.17763.0\SHARED\PSHPACK4.H
E:\WINDOWS KITS\10\INCLUDE\10.0.17763.0\SHARED\POPPACK.H
E:\WINDOWS KITS\10\INCLUDE\10.0.17763.0\SHARED\PSHPACK2.H
E:\WINDOWS KITS\10\INCLUDE\10.0.17763.0\SHARED\PSHPACK8.H
E:\WINDOWS KITS\10\INCLUDE\10.0.17763.0\SHARED\PSHPACK1.H
E:\WINDOWS KITS\10\INCLUDE\10.0.17763.0\SHARED\APISET.H
E:\WINDOWS KITS\10\INCLUDE\10.0.17763.0\SHARED\KTMTYPES.H
E:\WINDOWS KITS\10\INCLUDE\10.0.17763.0\UM\WINBASE.H
E:\WINDOWS KITS\10\INCLUDE\10.0.17763.0\SHARED\APISETCCONV.H
E:\WINDOWS KITS\10\INCLUDE\10.0.17763.0\UM\MINWINBASE.H
E:\WINDOWS KITS\10\INCLUDE\10.0.17763.0\UM\APIQUERY2.H
E:\WINDOWS KITS\10\INCLUDE\10.0.17763.0\UM\PROCESSENV.H
E:\WINDOWS KITS\10\INCLUDE\10.0.17763.0\UM\FILEAPI.H
E:\WINDOWS KITS\10\INCLUDE\10.0.17763.0\UM\DEBUGAPI.H
E:\WINDOWS KITS\10\INCLUDE\10.0.17763.0\UM\UTILAPISET.H
E:\WINDOWS KITS\10\INCLUDE\10.0.17763.0\UM\HANDLEAPI.H
E:\WINDOWS KITS\10\INCLUDE\10.0.17763.0\UM\ERRHANDLINGAPI.H
E:\WINDOWS KITS\10\INCLUDE\10.0.17763.0\UM\FIBERSAPI.H
E:\WINDOWS KITS\10\INCLUDE\10.0.17763.0\UM\NAMEDPIPEAPI.H
E:\WINDOWS KITS\10\INCLUDE\10.0.17763.0\UM\PROFILEAPI.H
E:\WINDOWS KITS\10\INCLUDE\10.0.17763.0\UM\HEAPAPI.H
E:\WINDOWS KITS\10\INCLUDE\10.0.17763.0\UM\IOAPISET.H
E:\WINDOWS KITS\10\INCLUDE\10.0.17763.0\UM\SYNCHAPI.H
E:\WINDOWS KITS\10\INCLUDE\10.0.17763.0\UM\INTERLOCKEDAPI.H
E:\WINDOWS KITS\10\INCLUDE\10.0.17763.0\UM\PROCESSTHREADSAPI.H
E:\WINDOWS KITS\10\INCLUDE\10.0.17763.0\UM\SYSINFOAPI.H
E:\WINDOWS KITS\10\INCLUDE\10.0.17763.0\UM\MEMORYAPI.H
E:\WINDOWS KITS\10\INCLUDE\10.0.17763.0\UM\ENCLAVEAPI.H
E:\WINDOWS KITS\10\INCLUDE\10.0.17763.0\UM\THREADPOOLLEGACYAPISET.H
E:\WINDOWS KITS\10\INCLUDE\10.0.17763.0\UM\THREADPOOLAPISET.H
E:\WINDOWS KITS\10\INCLUDE\10.0.17763.0\UM\JOBAPI.H
E:\WINDOWS KITS\10\INCLUDE\10.0.17763.0\UM\JOBAPI2.H
E:\WINDOWS KITS\10\INCLUDE\10.0.17763.0\UM\WOW64APISET.H
E:\WINDOWS KITS\10\INCLUDE\10.0.17763.0\UM\LIBLOADERAPI.H
E:\WINDOWS KITS\10\INCLUDE\10.0.17763.0\UM\SECURITYBASEAPI.H
E:\WINDOWS KITS\10\INCLUDE\10.0.17763.0\UM\NAMESPACEAPI.H
E:\WINDOWS KITS\10\INCLUDE\10.0.17763.0\UM\SYSTEMTOPOLOGYAPI.H
E:\WINDOWS KITS\10\INCLUDE\10.0.17763.0\UM\PROCESSTOPOLOGYAPI.H
E:\WINDOWS KITS\10\INCLUDE\10.0.17763.0\UM\SECURITYAPPCONTAINER.H
E:\WINDOWS KITS\10\INCLUDE\10.0.17763.0\UM\REALTIMEAPISET.H
E:\WINDOWS KITS\10\INCLUDE\10.0.17763.0\SHARED\WINERROR.H
E:\WINDOWS KITS\10\INCLUDE\10.0.17763.0\UM\TIMEZONEAPI.H
E:\WINDOWS KITS\10\INCLUDE\10.0.17763.0\UM\WINGDI.H
E:\WINDOWS KITS\10\INCLUDE\10.0.17763.0\UM\WINUSER.H
E:\WINDOWS KITS\10\INCLUDE\10.0.17763.0\SHARED\TVOUT.H
E:\WINDOWS KITS\10\INCLUDE\10.0.17763.0\UM\WINNLS.H
E:\WINDOWS KITS\10\INCLUDE\10.0.17763.0\UM\DATETIMEAPI.H
E:\WINDOWS KITS\10\INCLUDE\10.0.17763.0\UM\STRINGAPISET.H
E:\WINDOWS KITS\10\INCLUDE\10.0.17763.0\UM\WINCON.H
E:\WINDOWS KITS\10\INCLUDE\10.0.17763.0\UM\WINCONTYPES.H
E:\WINDOWS KITS\10\INCLUDE\10.0.17763.0\UM\CONSOLEAPI.H
E:\WINDOWS KITS\10\INCLUDE\10.0.17763.0\UM\CONSOLEAPI2.H
E:\WINDOWS KITS\10\INCLUDE\10.0.17763.0\UM\CONSOLEAPI3.H
E:\WINDOWS KITS\10\INCLUDE\10.0.17763.0\UM\WINVER.H
E:\WINDOWS KITS\10\INCLUDE\10.0.17763.0\UM\VERRSRC.H
E:\WINDOWS KITS\10\INCLUDE\10.0.17763.0\UM\WINREG.H
E:\WINDOWS KITS\10\INCLUDE\10.0.17763.0\UM\REASON.H
E:\WINDOWS KITS\10\INCLUDE\10.0.17763.0\UM\WINNETWK.H
E:\WINDOWS KITS\10\INCLUDE\10.0.17763.0\SHARED\WNNC.H
E:\WINDOWS KITS\10\INCLUDE\10.0.17763.0\SHARED\CDERR.H
E:\WINDOWS KITS\10\INCLUDE\10.0.17763.0\UM\DDE.H
E:\WINDOWS KITS\10\INCLUDE\10.0.17763.0\UM\DDEML.H
E:\WINDOWS KITS\10\INCLUDE\10.0.17763.0\UM\DLGS.H
E:\WINDOWS KITS\10\INCLUDE\10.0.17763.0\UM\LZEXPAND.H
E:\WINDOWS KITS\10\INCLUDE\10.0.17763.0\UM\MMSYSTEM.H
E:\WINDOWS KITS\10\INCLUDE\10.0.17763.0\UM\MMSYSCOM.H
E:\WINDOWS KITS\10\INCLUDE\10.0.17763.0\UM\MCIAPI.H
E:\WINDOWS KITS\10\INCLUDE\10.0.17763.0\UM\MMISCAPI.H
E:\WINDOWS KITS\10\INCLUDE\10.0.17763.0\UM\MMISCAPI2.H
E:\WINDOWS KITS\10\INCLUDE\10.0.17763.0\UM\PLAYSOUNDAPI.H
E:\WINDOWS KITS\10\INCLUDE\10.0.17763.0\UM\MMEAPI.H
E:\WINDOWS KITS\10\INCLUDE\10.0.17763.0\UM\TIMEAPI.H
E:\WINDOWS KITS\10\INCLUDE\10.0.17763.0\UM\JOYSTICKAPI.H
E:\WINDOWS KITS\10\INCLUDE\10.0.17763.0\UM\NB30.H
E:\WINDOWS KITS\10\INCLUDE\10.0.17763.0\SHARED\RPC.H
E:\WINDOWS KITS\10\INCLUDE\10.0.17763.0\SHARED\RPCDCE.H
E:\WINDOWS KITS\10\INCLUDE\10.0.17763.0\SHARED\RPCDCEP.H
E:\WINDOWS KITS\10\INCLUDE\10.0.17763.0\UM\RPCNSI.H
E:\WINDOWS KITS\10\INCLUDE\10.0.17763.0\SHARED\RPCNTERR.H
E:\WINDOWS KITS\10\INCLUDE\10.0.17763.0\SHARED\RPCASYNC.H
E:\WINDOWS KITS\10\INCLUDE\10.0.17763.0\UM\SHELLAPI.H
E:\WINDOWS KITS\10\INCLUDE\10.0.17763.0\UM\WINPERF.H
E:\WINDOWS KITS\10\INCLUDE\10.0.17763.0\UM\WINSOCK.H
E:\WINDOWS KITS\10\INCLUDE\10.0.17763.0\SHARED\INADDR.H
E:\WINDOWS KITS\10\INCLUDE\10.0.17763.0\UM\WINCRYPT.H
E:\WINDOWS KITS\10\INCLUDE\10.0.17763.0\SHARED\BCRYPT.H
E:\WINDOWS KITS\10\INCLUDE\10.0.17763.0\UM\NCRYPT.H
E:\WINDOWS KITS\10\INCLUDE\10.0.17763.0\UM\DPAPI.H
E:\WINDOWS KITS\10\INCLUDE\10.0.17763.0\UM\WINEFS.H
E:\WINDOWS KITS\10\INCLUDE\10.0.17763.0\UM\WINSCARD.H
E:\WINDOWS KITS\10\INCLUDE\10.0.17763.0\SHARED\WTYPES.H
E:\WINDOWS KITS\10\INCLUDE\10.0.17763.0\SHARED\RPCNDR.H
E:\WINDOWS KITS\10\INCLUDE\10.0.17763.0\UM\RPCNSIP.H
E:\WINDOWS KITS\10\INCLUDE\10.0.17763.0\SHARED\RPCSAL.H
E:\WINDOWS KITS\10\INCLUDE\10.0.17763.0\SHARED\WTYPESBASE.H
E:\WINDOWS KITS\10\INCLUDE\10.0.17763.0\UM\WINIOCTL.H
E:\WINDOWS KITS\10\INCLUDE\10.0.17763.0\SHARED\WINSMCRD.H
E:\WINDOWS KITS\10\INCLUDE\10.0.17763.0\UM\WINSPOOL.H
E:\WINDOWS KITS\10\INCLUDE\10.0.17763.0\UM\PRSHT.H
E:\WINDOWS KITS\10\INCLUDE\10.0.17763.0\UM\OLE2.H
E:\WINDOWS KITS\10\INCLUDE\10.0.17763.0\UM\OBJBASE.H
E:\WINDOWS KITS\10\INCLUDE\10.0.17763.0\UM\COMBASEAPI.H
E:\WINDOWS KITS\10\INCLUDE\10.0.17763.0\UM\UNKNWNBASE.H
E:\WINDOWS KITS\10\INCLUDE\10.0.17763.0\UM\OBJIDLBASE.H
E:\WINDOWS KITS\10\INCLUDE\10.0.17763.0\UM\CGUID.H
E:\WINDOWS KITS\10\INCLUDE\10.0.17763.0\UM\COML2API.H
E:\WINDOWS KITS\10\INCLUDE\10.0.17763.0\UM\OBJIDL.H
E:\WINDOWS KITS\10\INCLUDE\10.0.17763.0\UM\UNKNWN.H
E:\WINDOWS KITS\10\INCLUDE\10.0.17763.0\UM\PROPIDLBASE.H
E:\WINDOWS KITS\10\INCLUDE\10.0.17763.0\UM\OAIDL.H
E:\WINDOWS KITS\10\INCLUDE\10.0.17763.0\UM\URLMON.H
E:\WINDOWS KITS\10\INCLUDE\10.0.17763.0\UM\OLEIDL.H
E:\WINDOWS KITS\10\INCLUDE\10.0.17763.0\UM\SERVPROV.H
E:\WINDOWS KITS\10\INCLUDE\10.0.17763.0\UM\MSXML.H
E:\WINDOWS KITS\10\INCLUDE\10.0.17763.0\UM\PROPIDL.H
E:\WINDOWS KITS\10\INCLUDE\10.0.17763.0\UM\OLEAUTO.H
E:\WINDOWS KITS\10\INCLUDE\10.0.17763.0\UM\COMMDLG.H
E:\WINDOWS KITS\10\INCLUDE\10.0.17763.0\SHARED\STRALIGN.H
E:\WINDOWS KITS\10\INCLUDE\10.0.17763.0\UM\WINSVC.H
E:\WINDOWS KITS\10\INCLUDE\10.0.17763.0\UM\MCX.H
E:\WINDOWS KITS\10\INCLUDE\10.0.17763.0\UM\IMM.H
E:\WINDOWS KITS\10\INCLUDE\10.0.17763.0\UM\IME_CMODES.H
